<?xml version="1.0" encoding="UTF-8"?>
<svg width="1366px" height="400px" viewBox="0 0 1366 400" version="1.1" xmlns="http://www.w3.org/2000/svg" xmlns:xlink="http://www.w3.org/1999/xlink">
    <!-- Generator: Sketch 50.2 (55047) - http://www.bohemiancoding.com/sketch -->
    <title>AboutUs-BG</title>
    <desc>Created with Sketch.</desc>
    <defs>
        <radialGradient cx="79.5702577%" cy="72.1743908%" fx="79.5702577%" fy="72.1743908%" r="171.661547%" gradientTransform="translate(0.795703,0.721744),scale(0.292826,1.000000),rotate(90.000000),translate(-0.795703,-0.721744)" id="radialGradient-1">
            <stop stop-color="#FFC355" offset="0%"></stop>
            <stop stop-color="#FFA751" offset="100%"></stop>
        </radialGradient>
    </defs>
    <g id="Page-1" stroke="none" stroke-width="1" fill="none" fill-rule="evenodd">
        <g id="Index(1366px)" transform="translate(0.000000, -3680.000000)" fill="url(#radialGradient-1)">
            <g id="AboutUs-Section" transform="translate(0.000000, 3680.000000)">
                <rect id="AboutUs-BG" x="0" y="0" width="1366" height="400"></rect>
            </g>
        </g>
    </g>
</svg>