<?xml version="1.0" encoding="UTF-8"?>
<svg width="30px" height="30px" viewBox="0 0 30 30" version="1.1" xmlns="http://www.w3.org/2000/svg" xmlns:xlink="http://www.w3.org/1999/xlink">
    <!-- Generator: Sketch 50.2 (55047) - http://www.bohemiancoding.com/sketch -->
    <title>phone-ContactUs-01</title>
    <desc>Created with Sketch.</desc>
    <defs>
        <linearGradient x1="50%" y1="0%" x2="50%" y2="100%" id="linearGradient-1">
            <stop stop-color="#FFE259" offset="0%"></stop>
            <stop stop-color="#FFA751" offset="100%"></stop>
        </linearGradient>
    </defs>
    <g id="Page-1" stroke="none" stroke-width="1" fill="none" fill-rule="evenodd">
        <g id="Index(1366px)" transform="translate(-267.000000, -6110.000000)" fill="url(#linearGradient-1)" fill-rule="nonzero">
            <g id="ContactUs-Section" transform="translate(0.000000, 5681.000000)">
                <g id="Group-6" transform="translate(261.000000, 140.000000)">
                    <g id="Group-5" transform="translate(5.000000, 225.000000)">
                        <g id="Group-4">
                            <g id="phone-ContactUs-01" transform="translate(1.000000, 64.000000)">
                                <path d="M28.66,1.34 L28.66,28.66 L1.34,28.66 L1.34,1.34 L28.66,1.34 Z M30,0 L0,0 L0,30 L30,30 L30,0 Z" id="Shape"></path>
                                <path d="M22.18,19.36 L19.86,17 C19.387603,16.528264 18.622397,16.528264 18.15,17 L17,18.24 L16.77,18.11 C15.7392118,17.5865752 14.7921507,16.9125104 13.96,16.11 C13.1569066,15.2746059 12.4828321,14.3241609 11.96,13.29 C11.96,13.21 11.87,13.14 11.83,13.07 L12.62,12.28 L13,11.9 C13.471736,11.427603 13.471736,10.662397 13,10.19 L10.65,7.84 C10.4248378,7.61405458 10.1189818,7.48705372 9.8,7.48705372 C9.48101823,7.48705372 9.17516225,7.61405458 8.95,7.84 L8.3,8.5 C8.07563307,8.78930525 7.89379233,9.10921024 7.76,9.45 C7.63995972,9.77184915 7.56263411,10.1080474 7.53,10.45 C7.22,12.99 8.38,15.31 11.53,18.45 C15.88,22.8 19.39,22.45 19.53,22.45 C19.8728371,22.4166832 20.2093856,22.3359115 20.53,22.21 C20.8703875,22.0796833 21.1903145,21.9011977 21.48,21.68 L22.15,21.03 C22.6163027,20.5553677 22.6163027,19.7946323 22.15,19.32 L22.18,19.36 Z" id="Shape"></path>
                            </g>
                        </g>
                    </g>
                </g>
            </g>
        </g>
    </g>
</svg>